Design Route Status
                                               :      # nets :
   ------------------------------------------- : ----------- :
   # of logical nets.......................... :       39524 :
       # of nets not needing routing.......... :       18717 :
           # of internally routed nets........ :       18066 :
           # of nets with no loads............ :         651 :
       # of routable nets..................... :       20807 :
           # of fully routed nets............. :       20807 :
       # of nets with routing errors.......... :           0 :
   ------------------------------------------- : ----------- :

