Copyright 1986-2019 Xilinx, Inc. All Rights Reserved.
------------------------------------------------------------------------------------
| Tool Version : Vivado v.2019.1 (win64) Build 2552052 Fri May 24 14:49:42 MDT 2019
| Date         : Fri Apr  8 01:18:16 2022
| Host         : DESKTOP-JGL14SE running 64-bit major release  (build 9200)
| Command      : report_control_sets -verbose -file lab4_control_sets_placed.rpt
| Design       : lab4
| Device       : xc7a200t
------------------------------------------------------------------------------------

Control Set Information

Table of Contents
-----------------
1. Summary
2. Histogram
3. Flip-Flop Distribution
4. Detailed Control Set Information

1. Summary
----------

+----------------------------------------------------------+-------+
|                          Status                          | Count |
+----------------------------------------------------------+-------+
| Total control sets                                       |    18 |
|    Minimum number of control sets                        |    18 |
|    Addition due to synthesis replication                 |     0 |
|    Addition due to physical synthesis replication        |     0 |
| Unused register locations in slices containing registers |    56 |
+----------------------------------------------------------+-------+
* Control sets can be merged at opt_design using control_set_merge or merge_equivalent_drivers
** Run report_qor_suggestions for automated merging and remapping suggestions


2. Histogram
------------

+--------------------+-------+
|       Fanout       | Count |
+--------------------+-------+
| Total control sets |    18 |
| >= 0 to < 4        |     0 |
| >= 4 to < 6        |     5 |
| >= 6 to < 8        |     2 |
| >= 8 to < 10       |     3 |
| >= 10 to < 12      |     1 |
| >= 12 to < 14      |     1 |
| >= 14 to < 16      |     0 |
| >= 16              |     6 |
+--------------------+-------+
* Control sets can be remapped at either synth_design or opt_design


3. Flip-Flop Distribution
-------------------------

+--------------+-----------------------+------------------------+-----------------+--------------+
| Clock Enable | Synchronous Set/Reset | Asynchronous Set/Reset | Total Registers | Total Slices |
+--------------+-----------------------+------------------------+-----------------+--------------+
| No           | No                    | No                     |              34 |           14 |
| No           | No                    | Yes                    |               0 |            0 |
| No           | Yes                   | No                     |              56 |           17 |
| Yes          | No                    | No                     |              57 |           19 |
| Yes          | No                    | Yes                    |               0 |            0 |
| Yes          | Yes                   | No                     |              61 |           19 |
+--------------+-----------------------+------------------------+-----------------+--------------+


4. Detailed Control Set Information
-----------------------------------

+--------------------------------------------------------------------+---------------------------------------------------------------------------------------+---------------------------------------------------------------------------+------------------+----------------+
|                            Clock Signal                            |                                     Enable Signal                                     |                              Set/Reset Signal                             | Slice Load Count | Bel Load Count |
+--------------------------------------------------------------------+---------------------------------------------------------------------------------------+---------------------------------------------------------------------------+------------------+----------------+
|  datapath/lab2_Audio_Wrapper/audiocodec_master_clock/inst/clk_out2 | datapath/lab2_Audio_Wrapper/initialize_audio/twi_controller/FSM_gray_state[3]_i_1_n_0 |                                                                           |                2 |              4 |
|  datapath/lab2_Audio_Wrapper/audiocodec_master_clock/inst/clk_out2 | datapath/lab2_Audio_Wrapper/initialize_audio/twi_controller/E[0]                      | datapath/lab2_Audio_Wrapper/audio_inout/SR[0]                             |                3 |              4 |
|  clk_IBUF_BUFG                                                     |                                                                                       | datapath/lab2_Audio_Wrapper/audio_inout/Cnt_Bclk[4]_i_1_n_0               |                1 |              5 |
|  clk_IBUF_BUFG                                                     | control/FSM_onehot_state[4]_i_1_n_0                                                   | datapath/lab2_Audio_Wrapper/audio_inout/SR[0]                             |                1 |              5 |
|  clk_IBUF_BUFG                                                     | datapath/lab2_Audio_Wrapper/audio_inout/BCLK_Fall_int                                 | datapath/lab2_Audio_Wrapper/audio_inout/SR[0]                             |                2 |              5 |
|  datapath/lab2_Audio_Wrapper/audiocodec_master_clock/inst/clk_out2 |                                                                                       | datapath/lab2_Audio_Wrapper/initialize_audio/twi_controller/busFreeCnt0_1 |                3 |              7 |
|  datapath/lab2_Audio_Wrapper/audiocodec_master_clock/inst/clk_out2 | datapath/lab2_Audio_Wrapper/initialize_audio/twi_controller/sclCnt[6]_i_2_n_0         | datapath/lab2_Audio_Wrapper/initialize_audio/twi_controller/sclCnt0_0     |                3 |              7 |
|  clk_IBUF_BUFG                                                     | datapath/sel                                                                          | datapath/lab2_Audio_Wrapper/audio_inout/SR[0]                             |                2 |              8 |
|  datapath/lab2_Audio_Wrapper/audiocodec_master_clock/inst/clk_out2 | datapath/lab2_Audio_Wrapper/initialize_audio/twi_controller/dataByte[7]_i_1_n_0       |                                                                           |                2 |              8 |
|  clk_IBUF_BUFG                                                     |                                                                                       |                                                                           |                3 |              9 |
|  datapath/lab2_Audio_Wrapper/audiocodec_master_clock/inst/clk_out2 | reset_n_IBUF                                                                          |                                                                           |                4 |             10 |
|  clk_IBUF_BUFG                                                     |                                                                                       | datapath/lab2_Audio_Wrapper/audio_inout/SR[0]                             |                4 |             12 |
|  clk_IBUF_BUFG                                                     | datapath/phase_inc[15]_i_1_n_0                                                        | datapath/lab2_Audio_Wrapper/audio_inout/SR[0]                             |                4 |             16 |
|  clk_IBUF_BUFG                                                     | control/Q[0]                                                                          | datapath/lab2_Audio_Wrapper/audio_inout/SR[0]                             |                4 |             16 |
|  clk_IBUF_BUFG                                                     | datapath/lab2_Audio_Wrapper/audio_inout/Data_Out_int[31]_i_1_n_0                      |                                                                           |                5 |             17 |
|  datapath/lab2_Audio_Wrapper/audiocodec_master_clock/inst/clk_out2 | datapath/lab2_Audio_Wrapper/initialize_audio/initWord[30]_i_1_n_0                     |                                                                           |                6 |             18 |
|  datapath/lab2_Audio_Wrapper/audiocodec_master_clock/inst/clk_out2 |                                                                                       |                                                                           |               11 |             25 |
|  datapath/lab2_Audio_Wrapper/audiocodec_master_clock/inst/clk_out2 |                                                                                       | datapath/lab2_Audio_Wrapper/initialize_audio/delaycnt0                    |                9 |             32 |
+--------------------------------------------------------------------+---------------------------------------------------------------------------------------+---------------------------------------------------------------------------+------------------+----------------+


