# compile verilog/system verilog design source files
verilog xil_defaultlib  --include "../../../../lab4.srcs/sources_1/ip/clk_wiz_1" \
"../../../../lab4.srcs/sources_1/imports/lab2/audio_init.v" \

# compile glbl module
verilog xil_defaultlib "glbl.v"

# Do not sort compile order
nosort
