design_1_microblaze_0_0.vhd,vhdl,xil_defaultlib,../../../bd/design_1/ip/design_1_microblaze_0_0/sim/design_1_microblaze_0_0.vhd,incdir="../../../../lab3.srcs/sources_1/bd/design_1/ipshared/c923"incdir="../../../../lab3.srcs/sources_1/bd/design_1/ipshared/1ddd/hdl/verilog"incdir="../../../../lab3.srcs/sources_1/bd/design_1/ipshared/b2d0/hdl/verilog"incdir="../../../../lab3.srcs/sources_1/bd/design_1/ip/design_1_my_oscope2_ip_0_0/src/clk_wiz_1_2"incdir="../../../../lab3.srcs/sources_1/bd/design_1/ip/design_1_my_oscope2_ip_0_0/src/clk_wiz_0_2"incdir="../../../../lab3.srcs/sources_1/bd/design_1/ipshared/ec67/hdl"
design_1_dlmb_v10_0.vhd,vhdl,xil_defaultlib,../../../bd/design_1/ip/design_1_dlmb_v10_0/sim/design_1_dlmb_v10_0.vhd,incdir="../../../../lab3.srcs/sources_1/bd/design_1/ipshared/c923"incdir="../../../../lab3.srcs/sources_1/bd/design_1/ipshared/1ddd/hdl/verilog"incdir="../../../../lab3.srcs/sources_1/bd/design_1/ipshared/b2d0/hdl/verilog"incdir="../../../../lab3.srcs/sources_1/bd/design_1/ip/design_1_my_oscope2_ip_0_0/src/clk_wiz_1_2"incdir="../../../../lab3.srcs/sources_1/bd/design_1/ip/design_1_my_oscope2_ip_0_0/src/clk_wiz_0_2"incdir="../../../../lab3.srcs/sources_1/bd/design_1/ipshared/ec67/hdl"
design_1_ilmb_v10_0.vhd,vhdl,xil_defaultlib,../../../bd/design_1/ip/design_1_ilmb_v10_0/sim/design_1_ilmb_v10_0.vhd,incdir="../../../../lab3.srcs/sources_1/bd/design_1/ipshared/c923"incdir="../../../../lab3.srcs/sources_1/bd/design_1/ipshared/1ddd/hdl/verilog"incdir="../../../../lab3.srcs/sources_1/bd/design_1/ipshared/b2d0/hdl/verilog"incdir="../../../../lab3.srcs/sources_1/bd/design_1/ip/design_1_my_oscope2_ip_0_0/src/clk_wiz_1_2"incdir="../../../../lab3.srcs/sources_1/bd/design_1/ip/design_1_my_oscope2_ip_0_0/src/clk_wiz_0_2"incdir="../../../../lab3.srcs/sources_1/bd/design_1/ipshared/ec67/hdl"
design_1_dlmb_bram_if_cntlr_0.vhd,vhdl,xil_defaultlib,../../../bd/design_1/ip/design_1_dlmb_bram_if_cntlr_0/sim/design_1_dlmb_bram_if_cntlr_0.vhd,incdir="../../../../lab3.srcs/sources_1/bd/design_1/ipshared/c923"incdir="../../../../lab3.srcs/sources_1/bd/design_1/ipshared/1ddd/hdl/verilog"incdir="../../../../lab3.srcs/sources_1/bd/design_1/ipshared/b2d0/hdl/verilog"incdir="../../../../lab3.srcs/sources_1/bd/design_1/ip/design_1_my_oscope2_ip_0_0/src/clk_wiz_1_2"incdir="../../../../lab3.srcs/sources_1/bd/design_1/ip/design_1_my_oscope2_ip_0_0/src/clk_wiz_0_2"incdir="../../../../lab3.srcs/sources_1/bd/design_1/ipshared/ec67/hdl"
design_1_ilmb_bram_if_cntlr_0.vhd,vhdl,xil_defaultlib,../../../bd/design_1/ip/design_1_ilmb_bram_if_cntlr_0/sim/design_1_ilmb_bram_if_cntlr_0.vhd,incdir="../../../../lab3.srcs/sources_1/bd/design_1/ipshared/c923"incdir="../../../../lab3.srcs/sources_1/bd/design_1/ipshared/1ddd/hdl/verilog"incdir="../../../../lab3.srcs/sources_1/bd/design_1/ipshared/b2d0/hdl/verilog"incdir="../../../../lab3.srcs/sources_1/bd/design_1/ip/design_1_my_oscope2_ip_0_0/src/clk_wiz_1_2"incdir="../../../../lab3.srcs/sources_1/bd/design_1/ip/design_1_my_oscope2_ip_0_0/src/clk_wiz_0_2"incdir="../../../../lab3.srcs/sources_1/bd/design_1/ipshared/ec67/hdl"
design_1_lmb_bram_0_sim_netlist.vhdl,vhdl,xil_defaultlib,../../../bd/design_1/ip/design_1_lmb_bram_0/design_1_lmb_bram_0_sim_netlist.vhdl,incdir="../../../../lab3.srcs/sources_1/bd/design_1/ipshared/c923"incdir="../../../../lab3.srcs/sources_1/bd/design_1/ipshared/1ddd/hdl/verilog"incdir="../../../../lab3.srcs/sources_1/bd/design_1/ipshared/b2d0/hdl/verilog"incdir="../../../../lab3.srcs/sources_1/bd/design_1/ip/design_1_my_oscope2_ip_0_0/src/clk_wiz_1_2"incdir="../../../../lab3.srcs/sources_1/bd/design_1/ip/design_1_my_oscope2_ip_0_0/src/clk_wiz_0_2"incdir="../../../../lab3.srcs/sources_1/bd/design_1/ipshared/ec67/hdl"
design_1_mdm_1_0.vhd,vhdl,xil_defaultlib,../../../bd/design_1/ip/design_1_mdm_1_0/sim/design_1_mdm_1_0.vhd,incdir="../../../../lab3.srcs/sources_1/bd/design_1/ipshared/c923"incdir="../../../../lab3.srcs/sources_1/bd/design_1/ipshared/1ddd/hdl/verilog"incdir="../../../../lab3.srcs/sources_1/bd/design_1/ipshared/b2d0/hdl/verilog"incdir="../../../../lab3.srcs/sources_1/bd/design_1/ip/design_1_my_oscope2_ip_0_0/src/clk_wiz_1_2"incdir="../../../../lab3.srcs/sources_1/bd/design_1/ip/design_1_my_oscope2_ip_0_0/src/clk_wiz_0_2"incdir="../../../../lab3.srcs/sources_1/bd/design_1/ipshared/ec67/hdl"
design_1_clk_wiz_1_0_sim_netlist.vhdl,vhdl,xil_defaultlib,../../../bd/design_1/ip/design_1_clk_wiz_1_0/design_1_clk_wiz_1_0_sim_netlist.vhdl,incdir="../../../../lab3.srcs/sources_1/bd/design_1/ipshared/c923"incdir="../../../../lab3.srcs/sources_1/bd/design_1/ipshared/1ddd/hdl/verilog"incdir="../../../../lab3.srcs/sources_1/bd/design_1/ipshared/b2d0/hdl/verilog"incdir="../../../../lab3.srcs/sources_1/bd/design_1/ip/design_1_my_oscope2_ip_0_0/src/clk_wiz_1_2"incdir="../../../../lab3.srcs/sources_1/bd/design_1/ip/design_1_my_oscope2_ip_0_0/src/clk_wiz_0_2"incdir="../../../../lab3.srcs/sources_1/bd/design_1/ipshared/ec67/hdl"
design_1_rst_clk_wiz_1_100M_0.vhd,vhdl,xil_defaultlib,../../../bd/design_1/ip/design_1_rst_clk_wiz_1_100M_0/sim/design_1_rst_clk_wiz_1_100M_0.vhd,incdir="../../../../lab3.srcs/sources_1/bd/design_1/ipshared/c923"incdir="../../../../lab3.srcs/sources_1/bd/design_1/ipshared/1ddd/hdl/verilog"incdir="../../../../lab3.srcs/sources_1/bd/design_1/ipshared/b2d0/hdl/verilog"incdir="../../../../lab3.srcs/sources_1/bd/design_1/ip/design_1_my_oscope2_ip_0_0/src/clk_wiz_1_2"incdir="../../../../lab3.srcs/sources_1/bd/design_1/ip/design_1_my_oscope2_ip_0_0/src/clk_wiz_0_2"incdir="../../../../lab3.srcs/sources_1/bd/design_1/ipshared/ec67/hdl"
design_1_axi_uartlite_0_0.vhd,vhdl,xil_defaultlib,../../../bd/design_1/ip/design_1_axi_uartlite_0_0/sim/design_1_axi_uartlite_0_0.vhd,incdir="../../../../lab3.srcs/sources_1/bd/design_1/ipshared/c923"incdir="../../../../lab3.srcs/sources_1/bd/design_1/ipshared/1ddd/hdl/verilog"incdir="../../../../lab3.srcs/sources_1/bd/design_1/ipshared/b2d0/hdl/verilog"incdir="../../../../lab3.srcs/sources_1/bd/design_1/ip/design_1_my_oscope2_ip_0_0/src/clk_wiz_1_2"incdir="../../../../lab3.srcs/sources_1/bd/design_1/ip/design_1_my_oscope2_ip_0_0/src/clk_wiz_0_2"incdir="../../../../lab3.srcs/sources_1/bd/design_1/ipshared/ec67/hdl"
design_1_mig_7series_0_0_sim_netlist.vhdl,vhdl,xil_defaultlib,../../../bd/design_1/ip/design_1_mig_7series_0_0/design_1_mig_7series_0_0_sim_netlist.vhdl,incdir="../../../../lab3.srcs/sources_1/bd/design_1/ipshared/c923"incdir="../../../../lab3.srcs/sources_1/bd/design_1/ipshared/1ddd/hdl/verilog"incdir="../../../../lab3.srcs/sources_1/bd/design_1/ipshared/b2d0/hdl/verilog"incdir="../../../../lab3.srcs/sources_1/bd/design_1/ip/design_1_my_oscope2_ip_0_0/src/clk_wiz_1_2"incdir="../../../../lab3.srcs/sources_1/bd/design_1/ip/design_1_my_oscope2_ip_0_0/src/clk_wiz_0_2"incdir="../../../../lab3.srcs/sources_1/bd/design_1/ipshared/ec67/hdl"
design_1_axi_smc_0_sim_netlist.vhdl,vhdl,xil_defaultlib,../../../bd/design_1/ip/design_1_axi_smc_0/design_1_axi_smc_0_sim_netlist.vhdl,incdir="../../../../lab3.srcs/sources_1/bd/design_1/ipshared/c923"incdir="../../../../lab3.srcs/sources_1/bd/design_1/ipshared/1ddd/hdl/verilog"incdir="../../../../lab3.srcs/sources_1/bd/design_1/ipshared/b2d0/hdl/verilog"incdir="../../../../lab3.srcs/sources_1/bd/design_1/ip/design_1_my_oscope2_ip_0_0/src/clk_wiz_1_2"incdir="../../../../lab3.srcs/sources_1/bd/design_1/ip/design_1_my_oscope2_ip_0_0/src/clk_wiz_0_2"incdir="../../../../lab3.srcs/sources_1/bd/design_1/ipshared/ec67/hdl"
design_1_rst_mig_7series_0_100M_0.vhd,vhdl,xil_defaultlib,../../../bd/design_1/ip/design_1_rst_mig_7series_0_100M_0/sim/design_1_rst_mig_7series_0_100M_0.vhd,incdir="../../../../lab3.srcs/sources_1/bd/design_1/ipshared/c923"incdir="../../../../lab3.srcs/sources_1/bd/design_1/ipshared/1ddd/hdl/verilog"incdir="../../../../lab3.srcs/sources_1/bd/design_1/ipshared/b2d0/hdl/verilog"incdir="../../../../lab3.srcs/sources_1/bd/design_1/ip/design_1_my_oscope2_ip_0_0/src/clk_wiz_1_2"incdir="../../../../lab3.srcs/sources_1/bd/design_1/ip/design_1_my_oscope2_ip_0_0/src/clk_wiz_0_2"incdir="../../../../lab3.srcs/sources_1/bd/design_1/ipshared/ec67/hdl"
design_1_my_oscope2_ip_0_0_sim_netlist.vhdl,vhdl,xil_defaultlib,c:/CODING/csce_436_krull/lab3/lab3.srcs/sources_1/bd/design_1/ip/design_1_my_oscope2_ip_0_0/design_1_my_oscope2_ip_0_0_sim_netlist.vhdl,incdir="../../../../lab3.srcs/sources_1/bd/design_1/ipshared/c923"incdir="../../../../lab3.srcs/sources_1/bd/design_1/ipshared/1ddd/hdl/verilog"incdir="../../../../lab3.srcs/sources_1/bd/design_1/ipshared/b2d0/hdl/verilog"incdir="../../../../lab3.srcs/sources_1/bd/design_1/ip/design_1_my_oscope2_ip_0_0/src/clk_wiz_1_2"incdir="../../../../lab3.srcs/sources_1/bd/design_1/ip/design_1_my_oscope2_ip_0_0/src/clk_wiz_0_2"incdir="../../../../lab3.srcs/sources_1/bd/design_1/ipshared/ec67/hdl"
design_1_xbar_0_sim_netlist.vhdl,vhdl,xil_defaultlib,../../../bd/design_1/ip/design_1_xbar_0/design_1_xbar_0_sim_netlist.vhdl,incdir="../../../../lab3.srcs/sources_1/bd/design_1/ipshared/c923"incdir="../../../../lab3.srcs/sources_1/bd/design_1/ipshared/1ddd/hdl/verilog"incdir="../../../../lab3.srcs/sources_1/bd/design_1/ipshared/b2d0/hdl/verilog"incdir="../../../../lab3.srcs/sources_1/bd/design_1/ip/design_1_my_oscope2_ip_0_0/src/clk_wiz_1_2"incdir="../../../../lab3.srcs/sources_1/bd/design_1/ip/design_1_my_oscope2_ip_0_0/src/clk_wiz_0_2"incdir="../../../../lab3.srcs/sources_1/bd/design_1/ipshared/ec67/hdl"
design_1.vhd,vhdl,xil_defaultlib,../../../bd/design_1/sim/design_1.vhd,incdir="../../../../lab3.srcs/sources_1/bd/design_1/ipshared/c923"incdir="../../../../lab3.srcs/sources_1/bd/design_1/ipshared/1ddd/hdl/verilog"incdir="../../../../lab3.srcs/sources_1/bd/design_1/ipshared/b2d0/hdl/verilog"incdir="../../../../lab3.srcs/sources_1/bd/design_1/ip/design_1_my_oscope2_ip_0_0/src/clk_wiz_1_2"incdir="../../../../lab3.srcs/sources_1/bd/design_1/ip/design_1_my_oscope2_ip_0_0/src/clk_wiz_0_2"incdir="../../../../lab3.srcs/sources_1/bd/design_1/ipshared/ec67/hdl"
glbl.v,Verilog,xil_defaultlib,glbl.v
