xpm_cdc.sv,systemverilog,xil_defaultlib,../../../../../../../Xilinx/Vivado/2019.1/data/ip/xpm/xpm_cdc/hdl/xpm_cdc.sv,incdir="../../../../lab2.srcs/sources_1/ip/clk_wiz_1"
xpm_VCOMP.vhd,vhdl,xpm,../../../../../../../Xilinx/Vivado/2019.1/data/ip/xpm/xpm_VCOMP.vhd,incdir="../../../../lab2.srcs/sources_1/ip/clk_wiz_1"
clk_wiz_1_sim_netlist.vhdl,vhdl,xil_defaultlib,../../../../lab2.srcs/sources_1/ip/clk_wiz_1/clk_wiz_1_sim_netlist.vhdl,incdir="../../../../lab2.srcs/sources_1/ip/clk_wiz_1"
glbl.v,Verilog,xil_defaultlib,glbl.v
