Design Route Status
                                               :      # nets :
   ------------------------------------------- : ----------- :
   # of logical nets.......................... :       40567 :
       # of nets not needing routing.......... :       19022 :
           # of internally routed nets........ :       18371 :
           # of nets with no loads............ :         651 :
       # of routable nets..................... :       21545 :
           # of fully routed nets............. :       21545 :
       # of nets with routing errors.......... :           0 :
   ------------------------------------------- : ----------- :

